…
4-element Vector{Int64}:
 140934
 225694
    188
 256960"><pre>julia<span class="pl-k">&gt;</span> <span class="pl-c1">collection</span>(user)
<span class="pl-c1">4</span><span class="pl-k">-</span>element Vector{Int64}<span class="pl-k">:</span>
 <span class="pl-c1">140934</span>
 <span class="pl-c1">225694</span>
    <span class="pl-c1">188</span>
 <span class="pl-c1">256960</span></pre></div>
<h3 dir="auto"><a id="user-content-game-reviews" class="anchor" aria-hidden="true" href="#game-reviews"><svg class="octicon octicon-link" viewBox="0 0 16 16" version="1.1" width="16" height="16" aria-hidden="true"><path d="m7.775 3.275 1.25-1.25a3.5 3.5 0 1 1 4.95 4.95l-2.5 2.5a3.5 3.5 0 0 1-4.95 0 .751.751 0 0 1 .018-1.042.751.751 0 0 1 1.042-.018 1.998 1.998 0 0 0 2.83 0l2.5-2.5a2.002 2.002 0 0 0-2.83-2.83l-1.25 1.25a.751.751 0 0 1-1.042-.018.751.751 0 0 1-.018-1.042Zm-4.69 9.64a1.998 1.998 0 0 0 2.83 0l1.25-1.25a.751.751 0 0 1 1.042.018.751.751 0 0 1 .018 1.042l-1.25 1.25a3.5 3.5 0 1 1-4.95-4.95l2.5-2.5a3.5 3.5 0 0 1 4.95 0 .751.751 0 0 1-.018 1.042.751.751 0 0 1-1.042.018 1.998 1.998 0 0 0-2.83 0l-2.5 2.5a1.998 1.998 0 0 0 0 2.83Z"></path></svg></a>Game reviews</h3>
<p dir="auto">Use <code>gamereviews(id)</code> to scrape all reviews that were written for a specific game</p>
<div class="highlight highlight-source-julia notranslate position-relative overflow-auto" dir="auto" data-snippet-clipboard-copy-content="julia&gt; DataFrame(gamereviews(188))
Scraping 15700 reviews for Go... 100%|█████████████████████| Time: 0:06:31
15700×5 DataFrame
   Row │ id     name    username          rating   comment                       ⋯
       │ Int64  String  String            Float32  String                        ⋯
───────┼──────────────────────────────────────────────────────────────────────────
     1 │   188  Go      xenocles             10.0  My all time favourite 'classi ⋯
     2 │   188  Go      guus                 10.0  The mother of all strategy ga
     3 │   188  Go      Varthlokkur          10.0
     4 │   188  Go      Hiroshi Ishikawa     10.0  Simple rule yet extremely dee
     5 │   188  Go      layotte              10.0                                ⋯
   ⋮   │   ⋮      ⋮            ⋮             ⋮                     ⋮             ⋱
 15696 │   188  Go      aircastle             1.0
 15697 │   188  Go      ashleybobal53         1.0
 15698 │   188  Go      danperrault           1.0
 15699 │   188  Go      vikings40             1.0                                ⋯
 15700 │   188  Go      akaiready             1.0
                                                   1 column and 15690 rows omitted"><pre>julia<span class="pl-k">&gt;</span> <span class="pl-c1">DataFrame</span>(<span class="pl-c1">gamereviews</span>(<span class="pl-c1">188</span>))
…
