…
</tr>
</tbody>
</table>
<p dir="auto">Julia repository of <a href="https://en.wikipedia.org/wiki/Bundle_adjustment" rel="nofollow">bundle adjustment</a> problems from the <a href="http://grail.cs.washington.edu/projects/bal/" rel="nofollow">Bundle Adjustment in the Large</a> repository</p>
<h2 dir="auto"><a id="user-content-how-to-cite" class="anchor" aria-hidden="true" href="#how-to-cite"><svg class="octicon octicon-link" viewBox="0 0 16 16" version="1.1" width="16" height="16" aria-hidden="true"><path d="m7.775 3.275 1.25-1.25a3.5 3.5 0 1 1 4.95 4.95l-2.5 2.5a3.5 3.5 0 0 1-4.95 0 .751.751 0 0 1 .018-1.042.751.751 0 0 1 1.042-.018 1.998 1.998 0 0 0 2.83 0l2.5-2.5a2.002 2.002 0 0 0-2.83-2.83l-1.25 1.25a.751.751 0 0 1-1.042-.018.751.751 0 0 1-.018-1.042Zm-4.69 9.64a1.998 1.998 0 0 0 2.83 0l1.25-1.25a.751.751 0 0 1 1.042.018.751.751 0 0 1 .018 1.042l-1.25 1.25a3.5 3.5 0 1 1-4.95-4.95l2.5-2.5a3.5 3.5 0 0 1 4.95 0 .751.751 0 0 1-.018 1.042.751.751 0 0 1-1.042.018 1.998 1.998 0 0 0-2.83 0l-2.5 2.5a1.998 1.998 0 0 0 0 2.83Z"></path></svg></a>How to Cite</h2>
<p dir="auto">If you use BundleAdjustmentModels.jl in your work, please cite using the format given in <a href="https://github.com/JuliaSmoothOptimizers/BundleAdjustmentModels.jl/blob/main/CITATION.bib"><code>CITATION.bib</code></a>.</p>
<h1 dir="auto"><a id="user-content-bug-reports-and-discussions" class="anchor" aria-hidden="true" href="#bug-reports-and-discussions"><svg class="octicon octicon-link" viewBox="0 0 16 16" version="1.1" width="16" height="16" aria-hidden="true"><path d="m7.775 3.275 1.25-1.25a3.5 3.5 0 1 1 4.95 4.95l-2.5 2.5a3.5 3.5 0 0 1-4.95 0 .751.751 0 0 1 .018-1.042.751.751 0 0 1 1.042-.018 1.998 1.998 0 0 0 2.83 0l2.5-2.5a2.002 2.002 0 0 0-2.83-2.83l-1.25 1.25a.751.751 0 0 1-1.042-.018.751.751 0 0 1-.018-1.042Zm-4.69 9.64a1.998 1.998 0 0 0 2.83 0l1.25-1.25a.751.751 0 0 1 1.042.018.751.751 0 0 1 .018 1.042l-1.25 1.25a3.5 3.5 0 1 1-4.95-4.95l2.5-2.5a3.5 3.5 0 0 1 4.95 0 .751.751 0 0 1-.018 1.042.751.751 0 0 1-1.042.018 1.998 1.998 0 0 0-2.83 0l-2.5 2.5a1.998 1.998 0 0 0 0 2.83Z"></path></svg></a>Bug reports and discussions</h1>
<p dir="auto">If you think you found a bug, feel free to open an <a href="https://github.com/JuliaSmoothOptimizers/BundleAdjustmentModels.jl/issues">issue</a>.
Focused suggestions and requests can also be opened as issues. Before opening a pull request, start an issue or a discussion on the topic, please.</p>
<p dir="auto">If you want to ask a question not suited for a bug report, feel free to start a discussion <a href="https://github.com/JuliaSmoothOptimizers/Organization/discussions">here</a>. This forum is for general discussion about this repository and the <a href="https://github.com/JuliaSmoothOptimizers">JuliaSmoothOptimizers</a>, so questions about any of our packages are welcome.</p>
<h2 dir="auto"><a id="user-content-examples" class="anchor" aria-hidden="true" href="#examples"><svg class="octicon octicon-link" viewBox="0 0 16 16" version="1.1" width="16" height="16" aria-hidden="true"><path d="m7.775 3.275 1.25-1.25a3.5 3.5 0 1 1 4.95 4.95l-2.5 2.5a3.5 3.5 0 0 1-4.95 0 .751.751 0 0 1 .018-1.042.751.751 0 0 1 1.042-.018 1.998 1.998 0 0 0 2.83 0l2.5-2.5a2.002 2.002 0 0 0-2.83-2.83l-1.25 1.25a.751.751 0 0 1-1.042-.018.751.751 0 0 1-.018-1.042Zm-4.69 9.64a1.998 1.998 0 0 0 2.83 0l1.25-1.25a.751.751 0 0 1 1.042.018.751.751 0 0 1 .018 1.042l-1.25 1.25a3.5 3.5 0 1 1-4.95-4.95l2.5-2.5a3.5 3.5 0 0 1 4.95 0 .751.751 0 0 1-.018 1.042.751.751 0 0 1-1.042.018 1.998 1.998 0 0 0-2.83 0l-2.5 2.5a1.998 1.998 0 0 0 0 2.83Z"></path></svg></a>Examples</h2>
<div class="highlight highlight-source-julia notranslate position-relative overflow-auto" dir="auto" data-snippet-clipboard-copy-content="julia&gt; using BundleAdjustmentModels"><pre>julia<span class="pl-k">&gt;</span> <span class="pl-k">using</span> BundleAdjustmentModels</pre></div>
<p dir="auto"><code>problems_df()</code> returns a DataFrame of all the problems, their group and other features.</p>
<div class="highlight highlight-source-julia notranslate position-relative overflow-auto" dir="auto" data-snippet-clipboard-copy-content="julia&gt; df = problems_df()
74×5 DataFrame
 Row │ name                     group      nequ      nvar     nnzj      
     │ String                   String     Int64     Int64    Int64     
─────┼──────────────────────────────────────────────────────────────────
   1 │ problem-16-22106-pre     dubrovnik    167436    66462    2009232
  ⋮  │            ⋮                 ⋮         ⋮         ⋮         ⋮
  74 │ problem-1778-993923-pre  venice     10003892  2997771  120046704
                                                         72 rows omitted"><pre>julia<span class="pl-k">&gt;</span> df <span class="pl-k">=</span> <span class="pl-c1">problems_df</span>()
…
