…
  <span class="pl-s"><span class="pl-pds">"</span>difficulty<span class="pl-pds">"</span></span>              <span class="pl-k">=&gt;</span> <span class="pl-c1">2.10477e13</span>
  <span class="pl-s"><span class="pl-pds">"</span>block_size<span class="pl-pds">"</span></span>              <span class="pl-k">=&gt;</span> <span class="pl-c1">1290167</span>
  <span class="pl-s"><span class="pl-pds">"</span>current_supply<span class="pl-pds">"</span></span>          <span class="pl-k">=&gt;</span> <span class="pl-c1">18726912</span>
  <span class="pl-s"><span class="pl-pds">"</span>block_height<span class="pl-pds">"</span></span>            <span class="pl-k">=&gt;</span> <span class="pl-c1">686304</span>
  <span class="pl-s"><span class="pl-pds">"</span>id<span class="pl-pds">"</span></span>                      <span class="pl-k">=&gt;</span> <span class="pl-c1">1182</span>
  <span class="pl-s"><span class="pl-pds">"</span>transaction_count<span class="pl-pds">"</span></span>       <span class="pl-k">=&gt;</span> <span class="pl-c1">236672</span>
  <span class="pl-s"><span class="pl-pds">"</span>symbol<span class="pl-pds">"</span></span>                  <span class="pl-k">=&gt;</span> <span class="pl-s"><span class="pl-pds">"</span>BTC<span class="pl-pds">"</span></span>
  <span class="pl-s"><span class="pl-pds">"</span>new_addresses<span class="pl-pds">"</span></span>           <span class="pl-k">=&gt;</span> <span class="pl-c1">416203</span>
  <span class="pl-s"><span class="pl-pds">"</span>active_addresses<span class="pl-pds">"</span></span>        <span class="pl-k">=&gt;</span> <span class="pl-c1">921892</span>
  ⋮                         <span class="pl-k">=&gt;</span> ⋮</pre></div>
<ul dir="auto">
<li>Get daily historical block chain data for a coin</li>
</ul>
<div class="highlight highlight-source-julia notranslate position-relative overflow-auto" dir="auto" data-snippet-clipboard-copy-content="julia&gt; get_historical_daily(&quot;BTC&quot;, api_key=api_key)
30×18 DataFrame
 Row │ hashrate   time        difficulty  block_size  current_supply  block_height  id     transaction_co ⋯
     │ Float64    Int64       Float64     Int64       Int64           Int64         Int64  Int64          ⋯
─────┼─────────────────────────────────────────────────────────────────────────────────────────────────────
   1 │ 1.74004e8  1620259200  2.06088e13     1361765        18701912        682304   1182             311 ⋯
   2 │ 1.76859e8  1620345600  2.06088e13     1296296        18702987        682476   1182             307
   3 │ 1.75722e8  1620432000  2.06088e13     1310903        18704050        682647   1182             274
   4 │ 1.93208e8  1620518400  2.06088e13     1360895        18705212        682833   1182             247
  ⋮  │     ⋮          ⋮           ⋮           ⋮             ⋮              ⋮          ⋮            ⋮      ⋱
  28 │ 1.75997e8  1622592000  2.10477e13     1291096        18725168        686026   1182             250 ⋯
  29 │ 1.55955e8  1622678400  2.10477e13     1293653        18726087        686173   1182             255
  30 │ 1.36385e8  1622764800  2.10477e13     1290167        18726912        686304   1182             236
                                                                             11 columns and 23 rows omitted"><pre>julia<span class="pl-k">&gt;</span> <span class="pl-c1">get_historical_daily</span>(<span class="pl-s"><span class="pl-pds">"</span>BTC<span class="pl-pds">"</span></span>, api_key<span class="pl-k">=</span>api_key)
…
<span class="pl-s">  <span class="pl-pds">"</span></span>E<span class="pl-s"><span class="pl-pds"><span class="pl-c1">TH</span>"</span> =&gt; Dict{String, Any}(<span class="pl-pds">"</span><span class="pl-c1">Price</span></span><span class="pl-s"><span class="pl-pds">"</span>=&gt;Dict{String, Any}(<span class="pl-pds">"</span></span>U<span class="pl-s"><span class="pl-pds"><span class="pl-c1">SDT</span>"</span>=&gt;2799.37), <span class="pl-pds">"</span><span class="pl-c1">CoinInfo</span></span><span class="pl-s"><span class="pl-pds">"</span>=&gt;Dict{String, Any}(<span class="pl-pds">"</span></span>N<span class="pl-s"><span class="pl-pds"><span class="pl-c1">etHashesPerSecond</span>"</span>=&gt;6.2186e14, <span class="pl-pds">"</span><span class="pl-c1">BlockReward</span></span><span class="pl-s"><span class="pl-pds">"</span>=&gt;2.3…</span></pre></div>
</li>
<li>
<p dir="auto">News</p>
<ul dir="auto">
<li>
<p dir="auto">Get the latest/popular news from CryptoCompare API.</p>
<div class="highlight highlight-source-julia notranslate position-relative overflow-auto" dir="auto" data-snippet-clipboard-copy-content="julia&gt; df = get_latest_news(sortOrder=&quot;popular&quot;)
50×14 DataFrame
 Row │ imageurl                           id        guid                              
     │ String                             Any       String                            
─────┼─────────────────────────────────────────────────────────────────────────────────────────────────────────
   1 │ https://images.cryptocompare.com…  26986446  https://cryptoslate.com/?p=192077
   2 │ https://images.cryptocompare.com…  26986253  https://cryptopotato.com/?p=1221…
   3 │ https://images.cryptocompare.com…  26986191  https://www.newsbtc.com/?p=464997
   4 │ https://images.cryptocompare.com…  26986014  https://cryptopotato.com/?p=1220…
  ⋮  │                 ⋮                     ⋮                      ⋮                  ⋮  ⋮  ⋮  ⋮  ⋮  ⋮  ⋮  ⋮  ⋮  ⋮  ⋮
  48 │ https://images.cryptocompare.com…  26986515  https://coinnounce.com/?p=26565
  49 │ https://images.cryptocompare.com…  26986514  https://www.newsbtc.com/?p=465037
  50 │ https://images.cryptocompare.com…  26986513  https://news.bitcoin.com/?p=4637…
                                                                                         11 columns and 43 rows omitted"><pre>julia<span class="pl-k">&gt;</span> df <span class="pl-k">=</span> <span class="pl-c1">get_latest_news</span>(sortOrder<span class="pl-k">=</span><span class="pl-s"><span class="pl-pds">"</span>popular<span class="pl-pds">"</span></span>)
…
─────┼─────────────────────────────────────────────────────────────────────────────────────────────────────────
   <span class="pl-c1">1</span> │ https<span class="pl-k">:</span><span class="pl-k">//</span>images<span class="pl-k">.</span>cryptocompare<span class="pl-k">.</span>com…  <span class="pl-c1">26986446</span>  https<span class="pl-k">:</span><span class="pl-k">//</span>cryptoslate<span class="pl-k">.</span>com<span class="pl-k">/</span>?p<span class="pl-k">=</span><span class="pl-c1">192077</span>
   <span class="pl-c1">2</span> │ https<span class="pl-k">:</span><span class="pl-k">//</span>images<span class="pl-k">.</span>cryptocompare<span class="pl-k">.</span>com…  <span class="pl-c1">26986253</span>  https<span class="pl-k">:</span><span class="pl-k">//</span>cryptopotato<span class="pl-k">.</span>com<span class="pl-k">/</span>?p<span class="pl-k">=</span><span class="pl-c1">1221</span>…
   <span class="pl-c1">3</span> │ https<span class="pl-k">:</span><span class="pl-k">//</span>images<span class="pl-k">.</span>cryptocompare<span class="pl-k">.</span>com…  <span class="pl-c1">26986191</span>  https<span class="pl-k">:</span><span class="pl-k">//</span>www<span class="pl-k">.</span>newsbtc<span class="pl-k">.</span>com<span class="pl-k">/</span>?p<span class="pl-k">=</span><span class="pl-c1">464997</span>
   <span class="pl-c1">4</span> │ https<span class="pl-k">:</span><span class="pl-k">//</span>images<span class="pl-k">.</span>cryptocompare<span class="pl-k">.</span>com…  <span class="pl-c1">26986014</span>  https<span class="pl-k">:</span><span class="pl-k">//</span>cryptopotato<span class="pl-k">.</span>com<span class="pl-k">/</span>?p<span class="pl-k">=</span><span class="pl-c1">1220</span>…
  ⋮  │                 ⋮                     ⋮                      ⋮                  ⋮  ⋮  ⋮  ⋮  ⋮  ⋮  ⋮  ⋮  ⋮  ⋮  ⋮
  <span class="pl-c1">48</span> │ https<span class="pl-k">:</span><span class="pl-k">//</span>images<span class="pl-k">.</span>cryptocompare<span class="pl-k">.</span>com…  <span class="pl-c1">26986515</span>  https<span class="pl-k">:</span><span class="pl-k">//</span>coinnounce<span class="pl-k">.</span>com<span class="pl-k">/</span>?p<span class="pl-k">=</span><span class="pl-c1">26565</span>
  <span class="pl-c1">49</span> │ https<span class="pl-k">:</span><span class="pl-k">//</span>images<span class="pl-k">.</span>cryptocompare<span class="pl-k">.</span>com…  <span class="pl-c1">26986514</span>  https<span class="pl-k">:</span><span class="pl-k">//</span>www<span class="pl-k">.</span>newsbtc<span class="pl-k">.</span>com<span class="pl-k">/</span>?p<span class="pl-k">=</span><span class="pl-c1">465037</span>
  <span class="pl-c1">50</span> │ https<span class="pl-k">:</span><span class="pl-k">//</span>images<span class="pl-k">.</span>cryptocompare<span class="pl-k">.</span>com…  <span class="pl-c1">26986513</span>  https<span class="pl-k">:</span><span class="pl-k">//</span>news<span class="pl-k">.</span>bitcoin<span class="pl-k">.</span>com<span class="pl-k">/</span>?p<span class="pl-k">=</span><span class="pl-c1">4637</span>…
                                                                                         <span class="pl-c1">11</span> columns and <span class="pl-c1">43</span> rows omitted</pre></div>
</li>
<li>
<p dir="auto">Get the list of feeds from CryptoCompare API.</p>
<div class="highlight highlight-source-julia notranslate position-relative overflow-auto" dir="auto" data-snippet-clipboard-copy-content="julia&gt; get_news_feeds()
55×4 DataFrame
 Row │ key               name                   lang    img                               
     │ String            String                 String  String                            
─────┼────────────────────────────────────────────────────────────────────────────────────
   1 │ cryptocompare     CryptoCompare          EN      https://images.cryptocompare.com…
   2 │ cryptoglobe       CryptoGlobe            EN      https://images.cryptocompare.com…
   3 │ theblock          TheBlock               EN      https://images.cryptocompare.com…
   4 │ cryptonewsreview  CryptoNewsReview       EN      https://images.cryptocompare.com…
  ⋮  │        ⋮                    ⋮              ⋮                     ⋮
  53 │ okexinsights      OKEx Insights          EN      https://images.cryptocompare.com…
  54 │ blockworks        Blockworks             EN      https://images.cryptocompare.com…
  55 │ coinrepublic      The Coin Republic      EN      https://images.cryptocompare.com…
                                                                           48 rows omitted"><pre>julia<span class="pl-k">&gt;</span> <span class="pl-c1">get_news_feeds</span>()
…
─────┼────────────────────────────────────────────────────────────────────────────────────
   <span class="pl-c1">1</span> │ cryptocompare     CryptoCompare          EN      https<span class="pl-k">:</span><span class="pl-k">//</span>images<span class="pl-k">.</span>cryptocompare<span class="pl-k">.</span>com…
   <span class="pl-c1">2</span> │ cryptoglobe       CryptoGlobe            EN      https<span class="pl-k">:</span><span class="pl-k">//</span>images<span class="pl-k">.</span>cryptocompare<span class="pl-k">.</span>com…
   <span class="pl-c1">3</span> │ theblock          TheBlock               EN      https<span class="pl-k">:</span><span class="pl-k">//</span>images<span class="pl-k">.</span>cryptocompare<span class="pl-k">.</span>com…
   <span class="pl-c1">4</span> │ cryptonewsreview  CryptoNewsReview       EN      https<span class="pl-k">:</span><span class="pl-k">//</span>images<span class="pl-k">.</span>cryptocompare<span class="pl-k">.</span>com…
  ⋮  │        ⋮                    ⋮              ⋮                     ⋮
  <span class="pl-c1">53</span> │ okexinsights      OKEx Insights          EN      https<span class="pl-k">:</span><span class="pl-k">//</span>images<span class="pl-k">.</span>cryptocompare<span class="pl-k">.</span>com…
  <span class="pl-c1">54</span> │ blockworks        Blockworks             EN      https<span class="pl-k">:</span><span class="pl-k">//</span>images<span class="pl-k">.</span>cryptocompare<span class="pl-k">.</span>com…
  <span class="pl-c1">55</span> │ coinrepublic      The Coin Republic      EN      https<span class="pl-k">:</span><span class="pl-k">//</span>images<span class="pl-k">.</span>cryptocompare<span class="pl-k">.</span>com…
                                                                           <span class="pl-c1">48</span> rows omitted</pre></div>
</li>
<li>
<p dir="auto">Get the list of news categories from CryptoCompare API.</p>
<div class="highlight highlight-source-julia notranslate position-relative overflow-auto" dir="auto" data-snippet-clipboard-copy-content="julia&gt; get_news_categories()
28×4 DataFrame
 Row │ categoryName  excludedPhrases          includedPhrases          wordsAssociatedWithCategory       
     │ String        Vector{Any}?             Vector{Any}?             Vector{Any}                       
─────┼───────────────────────────────────────────────────────────────────────────────────────────────────
   1 │ BTC           Any[&quot;BITCOIN CASH&quot;]      missing                  Any[&quot;BTC&quot;, &quot;BITCOIN&quot;, &quot;SATOSHI&quot;]
   2 │ BCH           missing                  Any[&quot;BITCOIN CASH&quot;]      Any[&quot;BCH&quot;, &quot;BITCOINCASH&quot;]
   3 │ ETH           Any[&quot;ETHEREUM CLASSIC&quot;]  missing                  Any[&quot;ETH&quot;, &quot;ETHEREUM&quot;, &quot;VITALIK&quot;…
   4 │ LTC           missing                  missing                  Any[&quot;LTC&quot;, &quot;LITECOIN&quot;]
  ⋮  │      ⋮                   ⋮                        ⋮                             ⋮
  26 │ Business      missing                  missing                  Any[&quot;BUSINESS&quot;, &quot;INVESTOR&quot;, &quot;INV…
  27 │ Commodity     missing                  missing                  Any[&quot;COMMODITIES&quot;, &quot;OIL&quot;, &quot;OIL-B…
  28 │ Sponsored     missing                  missing                  Any[&quot;SPONSORED&quot;, &quot;FEATURED&quot;, &quot;PR…
                                                                                          21 rows omitted"><pre>julia<span class="pl-k">&gt;</span> <span class="pl-c1">get_news_categories</span>()
…
</li>
<li>
<p dir="auto">Gets the list of feeds and categories from CryptoCompare API.</p>
<div class="highlight highlight-source-julia notranslate position-relative overflow-auto" dir="auto" data-snippet-clipboard-copy-content="julia&gt; get_news_feeds_and_categories()
(55×4 DataFrame
 Row │ key               name                   lang    img                               
     │ String            String                 String  String                            
─────┼────────────────────────────────────────────────────────────────────────────────────
   1 │ cryptocompare     CryptoCompare          EN      https://images.cryptocompare.com…
   2 │ cryptoglobe       CryptoGlobe            EN      https://images.cryptocompare.com…
   3 │ theblock          TheBlock               EN      https://images.cryptocompare.com…
   4 │ cryptonewsreview  CryptoNewsReview       EN      https://images.cryptocompare.com…
  ⋮  │        ⋮                    ⋮              ⋮                     ⋮
  53 │ okexinsights      OKEx Insights          EN      https://images.cryptocompare.com…
  54 │ blockworks        Blockworks             EN      https://images.cryptocompare.com…
  55 │ coinrepublic      The Coin Republic      EN      https://images.cryptocompare.com…
                                                                           48 rows omitted, 28×4 DataFrame
…
