…
<span class="pl-c1">@testset</span> <span class="pl-s"><span class="pl-pds">"</span>lqr example<span class="pl-pds">"</span></span> <span class="pl-k">begin</span>
    <span class="pl-c1">main</span>()
<span class="pl-k">end</span></pre></div>
<div class="highlight highlight-source-julia notranslate position-relative overflow-auto" dir="auto" data-snippet-clipboard-copy-content="julia&gt; main()
1001×2 DataFrame
  Row │ time     sol
      │ Float64  NamedTup…
──────┼────────────────────────────────────────────
    1 │    0.0   (p = [1.01978, 1.95564], state =…
    2 │    0.01  (p = [1.01978, 1.95564], state =…
    3 │    0.02  (p = [1.03911, 1.91186], state =…
    4 │    0.03  (p = [1.05802, 1.86863], state =…
    5 │    0.04  (p = [1.07649, 1.82596], state =…
  ⋮   │    ⋮                     ⋮
  998 │    9.97  (p = [-0.00093419, 0.00103198], …
  999 │    9.98  (p = [-0.000923913, 0.00102347],…
 1000 │    9.99  (p = [-0.00091372, 0.001015], st…
 1001 │   10.0   (p = [-0.00091372, 0.001015], st…
                                   992 rows omitted"><pre>julia<span class="pl-k">&gt;</span> <span class="pl-c1">main</span>()
…
