<div id="readme" class="md" data-path="README.md"><article class="markdown-body entry-content container-lg" itemprop="text"><h1 dir="auto"><a id="user-content-impute" class="anchor" aria-hidden="true" href="#impute"><svg class="octicon octicon-link" viewBox="0 0 16 16" version="1.1" width="16" height="16" aria-hidden="true"><path d="m7.775 3.275 1.25-1.25a3.5 3.5 0 1 1 4.95 4.95l-2.5 2.5a3.5 3.5 0 0 1-4.95 0 .751.751 0 0 1 .018-1.042.751.751 0 0 1 1.042-.018 1.998 1.998 0 0 0 2.83 0l2.5-2.5a2.002 2.002 0 0 0-2.83-2.83l-1.25 1.25a.751.751 0 0 1-1.042-.018.751.751 0 0 1-.018-1.042Zm-4.69 9.64a1.998 1.998 0 0 0 2.83 0l1.25-1.25a.751.751 0 0 1 1.042.018.751.751 0 0 1 .018 1.042l-1.25 1.25a3.5 3.5 0 1 1-4.95-4.95l2.5-2.5a3.5 3.5 0 0 1 4.95 0 .751.751 0 0 1-.018 1.042.751.751 0 0 1-1.042.018 1.998 1.998 0 0 0-2.83 0l-2.5 2.5a1.998 1.998 0 0 0 0 2.83Z"></path></svg></a>Impute</h1>
<p dir="auto"><a href="https://invenia.github.io/Impute.jl/stable/" rel="nofollow"><img src="https://camo.githubusercontent.com/c97f0a5f2ae95755f64a27f1aa8d9a17462941fd3d6c907c7630abd5d3e60acf/68747470733a2f2f696d672e736869656c64732e696f2f62616467652f646f63732d737461626c652d626c75652e737667" alt="stable" data-canonical-src="https://img.shields.io/badge/docs-stable-blue.svg" style="max-width: 100%;"></a>
<a href="https://invenia.github.io/Impute.jl/latest/" rel="nofollow"><img src="https://camo.githubusercontent.com/56f8252ba8e9d3f0b810769543f77823d2fe031ce560d4c2d69fb1fcad800383/68747470733a2f2f696d672e736869656c64732e696f2f62616467652f646f63732d6c61746573742d626c75652e737667" alt="latest" data-canonical-src="https://img.shields.io/badge/docs-latest-blue.svg" style="max-width: 100%;"></a>
<a href="https://github.com/Invenia/Impute.jl/actions?query=workflow%3ACI"><img src="https://github.com/Invenia/Impute.jl/workflows/CI/badge.svg" alt="CI" style="max-width: 100%;"></a>
<a href="https://codecov.io/gh/invenia/Impute.jl" rel="nofollow"><img src="https://camo.githubusercontent.com/0e90fc857b2cffa33fb26062b708f98aa1e55b189e1b6f534b969b1455a7e833/68747470733a2f2f636f6465636f762e696f2f67682f696e76656e69612f496d707574652e6a6c2f6272616e63682f6d61737465722f67726170682f62616467652e737667" alt="codecov" data-canonical-src="https://codecov.io/gh/invenia/Impute.jl/branch/master/graph/badge.svg" style="max-width: 100%;"></a></p>
<p dir="auto">Impute.jl provides various methods for handling missing data in Vectors, Matrices and <a href="https://github.com/JuliaData/Tables.jl">Tables</a>.</p>
<h2 dir="auto"><a id="user-content-installation" class="anchor" aria-hidden="true" href="#installation"><svg class="octicon octicon-link" viewBox="0 0 16 16" version="1.1" width="16" height="16" aria-hidden="true"><path d="m7.775 3.275 1.25-1.25a3.5 3.5 0 1 1 4.95 4.95l-2.5 2.5a3.5 3.5 0 0 1-4.95 0 .751.751 0 0 1 .018-1.042.751.751 0 0 1 1.042-.018 1.998 1.998 0 0 0 2.83 0l2.5-2.5a2.002 2.002 0 0 0-2.83-2.83l-1.25 1.25a.751.751 0 0 1-1.042-.018.751.751 0 0 1-.018-1.042Zm-4.69 9.64a1.998 1.998 0 0 0 2.83 0l1.25-1.25a.751.751 0 0 1 1.042.018.751.751 0 0 1 .018 1.042l-1.25 1.25a3.5 3.5 0 1 1-4.95-4.95l2.5-2.5a3.5 3.5 0 0 1 4.95 0 .751.751 0 0 1-.018 1.042.751.751 0 0 1-1.042.018 1.998 1.998 0 0 0-2.83 0l-2.5 2.5a1.998 1.998 0 0 0 0 2.83Z"></path></svg></a>Installation</h2>
<div class="highlight highlight-source-julia notranslate position-relative overflow-auto" dir="auto" data-snippet-clipboard-copy-content="julia&gt; using Pkg; Pkg.add(&quot;Impute&quot;)"><pre>julia<span class="pl-k">&gt;</span> <span class="pl-k">using</span> Pkg; Pkg<span class="pl-k">.</span><span class="pl-c1">add</span>(<span class="pl-s"><span class="pl-pds">"</span>Impute<span class="pl-pds">"</span></span>)</pre></div>
<h2 dir="auto"><a id="user-content-quickstart" class="anchor" aria-hidden="true" href="#quickstart"><svg class="octicon octicon-link" viewBox="0 0 16 16" version="1.1" width="16" height="16" aria-hidden="true"><path d="m7.775 3.275 1.25-1.25a3.5 3.5 0 1 1 4.95 4.95l-2.5 2.5a3.5 3.5 0 0 1-4.95 0 .751.751 0 0 1 .018-1.042.751.751 0 0 1 1.042-.018 1.998 1.998 0 0 0 2.83 0l2.5-2.5a2.002 2.002 0 0 0-2.83-2.83l-1.25 1.25a.751.751 0 0 1-1.042-.018.751.751 0 0 1-.018-1.042Zm-4.69 9.64a1.998 1.998 0 0 0 2.83 0l1.25-1.25a.751.751 0 0 1 1.042.018.751.751 0 0 1 .018 1.042l-1.25 1.25a3.5 3.5 0 1 1-4.95-4.95l2.5-2.5a3.5 3.5 0 0 1 4.95 0 .751.751 0 0 1-.018 1.042.751.751 0 0 1-1.042.018 1.998 1.998 0 0 0-2.83 0l-2.5 2.5a1.998 1.998 0 0 0 0 2.83Z"></path></svg></a>Quickstart</h2>
<p dir="auto">Let's start by loading our dependencies:</p>
<div class="highlight highlight-source-julia notranslate position-relative overflow-auto" dir="auto" data-snippet-clipboard-copy-content="julia&gt; using DataFrames, Impute"><pre>julia<span class="pl-k">&gt;</span> <span class="pl-k">using</span> DataFrames, Impute</pre></div>
<p dir="auto">We'll also want some test data containing missings to work with:</p>
<div class="highlight highlight-source-julia notranslate position-relative overflow-auto" dir="auto" data-snippet-clipboard-copy-content="julia&gt; df = Impute.dataset(&quot;test/table/neuro&quot;) |&gt; DataFrame
469×6 DataFrame
 Row │ V1         V2         V3       V4        V5         V6
     │ Float64?   Float64?   Float64  Float64?  Float64?   Float64?
─────┼───────────────────────────────────────────────────────────────
   1 │ missing       -203.7    -84.1      18.5  missing    missing
   2 │ missing       -203.0    -97.8      25.8      134.7  missing
   3 │ missing       -249.0    -92.1      27.8      177.1  missing
   4 │ missing       -231.5    -97.5      27.0      150.3  missing
   5 │ missing    missing     -130.1      25.8      160.0  missing
   6 │ missing       -223.1    -70.7      62.1      197.5  missing
   7 │ missing       -164.8    -12.2      76.8      202.8  missing
   8 │ missing       -221.6    -81.9      27.5      144.5  missing
  ⋮  │     ⋮          ⋮         ⋮        ⋮          ⋮          ⋮
 463 │    -242.6     -142.0    -21.8      69.8      148.7  missing
 464 │    -235.9     -128.8    -33.1      68.8      177.1  missing
 465 │ missing       -140.8    -38.7      58.1      186.3  missing
 466 │ missing       -149.5    -40.3      62.8      139.7      242.5
 467 │    -247.6     -157.8    -53.3      28.3      122.9      227.6
 468 │ missing       -154.9    -50.8      28.1      119.9      201.1
 469 │ missing       -180.7    -70.9      33.7      114.8      222.5
                                                     454 rows omitted"><pre>julia<span class="pl-k">&gt;</span> df <span class="pl-k">=</span> Impute<span class="pl-k">.</span><span class="pl-c1">dataset</span>(<span class="pl-s"><span class="pl-pds">"</span>test/table/neuro<span class="pl-pds">"</span></span>) <span class="pl-k">|&gt;</span> DataFrame
…
   2 │  -234.0   -140.8    -56.5     28.0    114.3    222.9
   3 │  -215.8   -114.8    -18.4     65.3    171.6    249.7
   4 │  -247.6   -157.8    -53.3     28.3    122.9    227.6"><pre>julia<span class="pl-k">&gt;</span> Impute<span class="pl-k">.</span><span class="pl-c1">filter</span>(df; dims<span class="pl-k">=</span><span class="pl-c1">:rows</span>)
<span class="pl-c1">4</span><span class="pl-k">×</span><span class="pl-c1">6</span> DataFrame
 Row │ V1       V2       V3       V4       V5       V6
     │ Float64  Float64  Float64  Float64  Float64  Float64
─────┼──────────────────────────────────────────────────────
   <span class="pl-c1">1</span> │  <span class="pl-k">-</span><span class="pl-c1">247.0</span>   <span class="pl-k">-</span><span class="pl-c1">132.2</span>    <span class="pl-k">-</span><span class="pl-c1">18.8</span>     <span class="pl-c1">28.2</span>     <span class="pl-c1">81.4</span>    <span class="pl-c1">237.9</span>
   <span class="pl-c1">2</span> │  <span class="pl-k">-</span><span class="pl-c1">234.0</span>   <span class="pl-k">-</span><span class="pl-c1">140.8</span>    <span class="pl-k">-</span><span class="pl-c1">56.5</span>     <span class="pl-c1">28.0</span>    <span class="pl-c1">114.3</span>    <span class="pl-c1">222.9</span>
   <span class="pl-c1">3</span> │  <span class="pl-k">-</span><span class="pl-c1">215.8</span>   <span class="pl-k">-</span><span class="pl-c1">114.8</span>    <span class="pl-k">-</span><span class="pl-c1">18.4</span>     <span class="pl-c1">65.3</span>    <span class="pl-c1">171.6</span>    <span class="pl-c1">249.7</span>
   <span class="pl-c1">4</span> │  <span class="pl-k">-</span><span class="pl-c1">247.6</span>   <span class="pl-k">-</span><span class="pl-c1">157.8</span>    <span class="pl-k">-</span><span class="pl-c1">53.3</span>     <span class="pl-c1">28.3</span>    <span class="pl-c1">122.9</span>    <span class="pl-c1">227.6</span></pre></div>
<p dir="auto">We could try imputing the values with linear interpolation, but that still leaves missing
data at the head and tail of our dataset:</p>
<div class="highlight highlight-source-julia notranslate position-relative overflow-auto" dir="auto" data-snippet-clipboard-copy-content="julia&gt; Impute.interp(df)
469×6 DataFrame
 Row │ V1           V2         V3       V4        V5         V6
     │ Float64?     Float64?   Float64  Float64?  Float64?   Float64?
─────┼───────────────────────────────────────────────────────────────────
   1 │ missing        -203.7     -84.1      18.5  missing    missing
   2 │ missing        -203.0     -97.8      25.8      134.7  missing
   3 │ missing        -249.0     -92.1      27.8      177.1  missing
   4 │ missing        -231.5     -97.5      27.0      150.3  missing
   5 │ missing        -227.3    -130.1      25.8      160.0  missing
   6 │ missing        -223.1     -70.7      62.1      197.5  missing
   7 │ missing        -164.8     -12.2      76.8      202.8  missing
   8 │ missing        -221.6     -81.9      27.5      144.5  missing
  ⋮  │      ⋮           ⋮         ⋮        ⋮          ⋮           ⋮
 463 │    -242.6      -142.0     -21.8      69.8      148.7      224.125
 464 │    -235.9      -128.8     -33.1      68.8      177.1      230.25
 465 │    -239.8      -140.8     -38.7      58.1      186.3      236.375
 466 │    -243.7      -149.5     -40.3      62.8      139.7      242.5
 467 │    -247.6      -157.8     -53.3      28.3      122.9      227.6
 468 │ missing        -154.9     -50.8      28.1      119.9      201.1
 469 │ missing        -180.7     -70.9      33.7      114.8      222.5
                                                         454 rows omitted"><pre>julia<span class="pl-k">&gt;</span> Impute<span class="pl-k">.</span><span class="pl-c1">interp</span>(df)
…
   <span class="pl-c1">6</span> │ <span class="pl-c1">missing</span>        <span class="pl-k">-</span><span class="pl-c1">223.1</span>     <span class="pl-k">-</span><span class="pl-c1">70.7</span>      <span class="pl-c1">62.1</span>      <span class="pl-c1">197.5</span>  <span class="pl-c1">missing</span>
   <span class="pl-c1">7</span> │ <span class="pl-c1">missing</span>        <span class="pl-k">-</span><span class="pl-c1">164.8</span>     <span class="pl-k">-</span><span class="pl-c1">12.2</span>      <span class="pl-c1">76.8</span>      <span class="pl-c1">202.8</span>  <span class="pl-c1">missing</span>
   <span class="pl-c1">8</span> │ <span class="pl-c1">missing</span>        <span class="pl-k">-</span><span class="pl-c1">221.6</span>     <span class="pl-k">-</span><span class="pl-c1">81.9</span>      <span class="pl-c1">27.5</span>      <span class="pl-c1">144.5</span>  <span class="pl-c1">missing</span>
  ⋮  │      ⋮           ⋮         ⋮        ⋮          ⋮           ⋮
 <span class="pl-c1">463</span> │    <span class="pl-k">-</span><span class="pl-c1">242.6</span>      <span class="pl-k">-</span><span class="pl-c1">142.0</span>     <span class="pl-k">-</span><span class="pl-c1">21.8</span>      <span class="pl-c1">69.8</span>      <span class="pl-c1">148.7</span>      <span class="pl-c1">224.125</span>
 <span class="pl-c1">464</span> │    <span class="pl-k">-</span><span class="pl-c1">235.9</span>      <span class="pl-k">-</span><span class="pl-c1">128.8</span>     <span class="pl-k">-</span><span class="pl-c1">33.1</span>      <span class="pl-c1">68.8</span>      <span class="pl-c1">177.1</span>      <span class="pl-c1">230.25</span>
 <span class="pl-c1">465</span> │    <span class="pl-k">-</span><span class="pl-c1">239.8</span>      <span class="pl-k">-</span><span class="pl-c1">140.8</span>     <span class="pl-k">-</span><span class="pl-c1">38.7</span>      <span class="pl-c1">58.1</span>      <span class="pl-c1">186.3</span>      <span class="pl-c1">236.375</span>
 <span class="pl-c1">466</span> │    <span class="pl-k">-</span><span class="pl-c1">243.7</span>      <span class="pl-k">-</span><span class="pl-c1">149.5</span>     <span class="pl-k">-</span><span class="pl-c1">40.3</span>      <span class="pl-c1">62.8</span>      <span class="pl-c1">139.7</span>      <span class="pl-c1">242.5</span>
 <span class="pl-c1">467</span> │    <span class="pl-k">-</span><span class="pl-c1">247.6</span>      <span class="pl-k">-</span><span class="pl-c1">157.8</span>     <span class="pl-k">-</span><span class="pl-c1">53.3</span>      <span class="pl-c1">28.3</span>      <span class="pl-c1">122.9</span>      <span class="pl-c1">227.6</span>
 <span class="pl-c1">468</span> │ <span class="pl-c1">missing</span>        <span class="pl-k">-</span><span class="pl-c1">154.9</span>     <span class="pl-k">-</span><span class="pl-c1">50.8</span>      <span class="pl-c1">28.1</span>      <span class="pl-c1">119.9</span>      <span class="pl-c1">201.1</span>
 <span class="pl-c1">469</span> │ <span class="pl-c1">missing</span>        <span class="pl-k">-</span><span class="pl-c1">180.7</span>     <span class="pl-k">-</span><span class="pl-c1">70.9</span>      <span class="pl-c1">33.7</span>      <span class="pl-c1">114.8</span>      <span class="pl-c1">222.5</span>
                                                         <span class="pl-c1">454</span> rows omitted</pre></div>
<p dir="auto">Finally, we can chain multiple simple methods together to give a complete dataset:</p>
<div class="highlight highlight-source-julia notranslate position-relative overflow-auto" dir="auto" data-snippet-clipboard-copy-content="julia&gt; Impute.interp(df) |&gt; Impute.locf() |&gt; Impute.nocb()
469×6 DataFrame
 Row │ V1        V2         V3       V4        V5        V6
     │ Float64?  Float64?   Float64  Float64?  Float64?  Float64?
─────┼────────────────────────────────────────────────────────────
   1 │ -233.6      -203.7     -84.1      18.5     134.7   222.7
   2 │ -233.6      -203.0     -97.8      25.8     134.7   222.7
   3 │ -233.6      -249.0     -92.1      27.8     177.1   222.7
   4 │ -233.6      -231.5     -97.5      27.0     150.3   222.7
   5 │ -233.6      -227.3    -130.1      25.8     160.0   222.7
   6 │ -233.6      -223.1     -70.7      62.1     197.5   222.7
   7 │ -233.6      -164.8     -12.2      76.8     202.8   222.7
   8 │ -233.6      -221.6     -81.9      27.5     144.5   222.7
  ⋮  │    ⋮          ⋮         ⋮        ⋮         ⋮         ⋮
 463 │ -242.6      -142.0     -21.8      69.8     148.7   224.125
 464 │ -235.9      -128.8     -33.1      68.8     177.1   230.25
 465 │ -239.8      -140.8     -38.7      58.1     186.3   236.375
 466 │ -243.7      -149.5     -40.3      62.8     139.7   242.5
 467 │ -247.6      -157.8     -53.3      28.3     122.9   227.6
 468 │ -247.6      -154.9     -50.8      28.1     119.9   201.1
 469 │ -247.6      -180.7     -70.9      33.7     114.8   222.5
                                                  454 rows omitted"><pre>julia<span class="pl-k">&gt;</span> Impute<span class="pl-k">.</span><span class="pl-c1">interp</span>(df) <span class="pl-k">|&gt;</span> Impute<span class="pl-k">.</span><span class="pl-c1">locf</span>() <span class="pl-k">|&gt;</span> Impute<span class="pl-k">.</span><span class="pl-c1">nocb</span>()
…
