…
julia&gt; keys(particles[100])
(:eventnum, :idx, :id, :status, :mother1, :mother2, :color1, :color2, :px, :py, :pz, :e, :m, :lifetime, :spin)

julia&gt; values(particles[100])
(1, 0, 21, -1, 0, 0, 502, 503, 0.0, 0.0, 1070.9531583, 1070.9531583, 0.0, 0.0, -1.0)

julia&gt; using DataFrames

julia&gt; DataFrame(particles)
270×15 DataFrame
 Row │ eventnum  idx    id     status  mother1  mother2  color1  color2  px          py         ⋯
     │ Int64     Int64  Int32  Int8    Int16    Int16    Int32   Int32   Float64     Float64    ⋯
─────┼───────────────────────────────────────────────────────────────────────────────────────────
   1 │        1      0     21      -1        0        0     502     503     0.0         0.0     ⋯
   2 │        1      1     21      -1        0        0     501     504     0.0         0.0
   3 │        1      2      6       1        1        2     501       0   113.378     114.162
   4 │        1      3      6       1        1        2     502       0    34.5976   -272.466
   5 │        1      4     -6       1        1        2       0     503    15.5346    182.891   ⋯
  ⋮  │    ⋮        ⋮      ⋮      ⋮        ⋮        ⋮       ⋮       ⋮         ⋮           ⋮      ⋱
 267 │       45      2      6       1        1        2     501       0    35.3736    -60.1114
 268 │       45      3      6       1        1        2     502       0  -406.333     127.811
 269 │       45      4     -6       1        1        2       0     503   372.086     -99.7773
 270 │       45      5     -6       1        1        2       0     504    -1.12621    32.0774  ⋯
                                                                   5 columns and 261 rows omitted"><pre>julia<span class="pl-k">&gt;</span> particles <span class="pl-k">=</span> <span class="pl-c1">flatparticles</span>(<span class="pl-s"><span class="pl-pds">"</span>./test/ft.lhe.gz<span class="pl-pds">"</span></span>);
…
