…
<p dir="auto">A Julia package that makes it easy to index package data, including information on a package's modules, docstrings, source files, definitions and bindings.</p>
<p dir="auto">Features:</p>
<ul dir="auto">
<li>index packages, with support for recursively indexing dependencies and caching</li>
<li>searching and filtering</li>
<li>use index data with all Tables.jl-compliant data sinks, e.g. DataFrames.jl</li>
<li>resolve identifiers in a module scope to find the symbol they refer to</li>
</ul>
<p dir="auto">Here we index <code>Base</code> and all its submodules:</p>
<div class="snippet-clipboard-content notranslate position-relative overflow-auto" data-snippet-clipboard-copy-content="julia&gt; pkgindex = PackageIndex([Base])
PackageIndex(1 package, 42 modules, 203 files, 3847 symbols, 7892 methods, 1267 docstrings, 5385 bindings)"><pre lang="julia-repl" class="notranslate"><code>julia&gt; pkgindex = PackageIndex([Base])
PackageIndex(1 package, 42 modules, 203 files, 3847 symbols, 7892 methods, 1267 docstrings, 5385 bindings)
</code></pre></div>
<div class="snippet-clipboard-content notranslate position-relative overflow-auto" data-snippet-clipboard-copy-content="julia&gt; DataFrame(pkgindex.modules)
42×3 DataFrame
 Row │ id                          parent                package_id 
     │ String                      Union…                String     
─────┼──────────────────────────────────────────────────────────────
   1 │ Base                        Main                  Base@1.8.1
   2 │ Base.BaseDocs               Base                  Base@1.8.1
   3 │ Base.BinaryPlatforms        Base                  Base@1.8.1
   4 │ Base.BinaryPlatforms.CPUID  Base.BinaryPlatforms  Base@1.8.1
   5 │ Base.Broadcast              Base                  Base@1.8.1
  ⋮  │             ⋮                        ⋮                ⋮
  39 │ Base.Sys                    Base                  Base@1.8.1
  40 │ Base.TOML                   Base                  Base@1.8.1
  41 │ Base.Threads                Base                  Base@1.8.1
  42 │ Base.Unicode                Base                  Base@1.8.1
                                                     33 rows omitted"><pre lang="julia-repl" class="notranslate"><code>julia&gt; DataFrame(pkgindex.modules)
42×3 DataFrame
 Row │ id                          parent                package_id 
     │ String                      Union…                String     
─────┼──────────────────────────────────────────────────────────────
   1 │ Base                        Main                  Base@1.8.1
   2 │ Base.BaseDocs               Base                  Base@1.8.1
   3 │ Base.BinaryPlatforms        Base                  Base@1.8.1
   4 │ Base.BinaryPlatforms.CPUID  Base.BinaryPlatforms  Base@1.8.1
   5 │ Base.Broadcast              Base                  Base@1.8.1
  ⋮  │             ⋮                        ⋮                ⋮
  39 │ Base.Sys                    Base                  Base@1.8.1
  40 │ Base.TOML                   Base                  Base@1.8.1
  41 │ Base.Threads                Base                  Base@1.8.1
  42 │ Base.Unicode                Base                  Base@1.8.1
                                                     33 rows omitted
…
