…
    return transform!(groupby(df, id), [t, x] =&gt; ((t, x) -&gt; tlag(t, x, n; checksorted=checksorted)) =&gt; newx)
end"><pre><span class="pl-k">function</span> <span class="pl-en">panellag!</span>(df, id, t, x, newx, n<span class="pl-k">=</span><span class="pl-c1">oneunit</span>(df[<span class="pl-c1">1</span>, t] <span class="pl-k">-</span> df[<span class="pl-c1">1</span>, t]); checksorted<span class="pl-k">=</span><span class="pl-c1">true</span>)
    <span class="pl-k">return</span> <span class="pl-c1">transform!</span>(<span class="pl-c1">groupby</span>(df, id), [t, x] <span class="pl-k">=&gt;</span> ((t, x) <span class="pl-k">-&gt;</span> <span class="pl-c1">tlag</span>(t, x, n; checksorted<span class="pl-k">=</span>checksorted)) <span class="pl-k">=&gt;</span> newx)
<span class="pl-k">end</span></pre></div>
<p dir="auto">It groups <code>df</code> by <code>id</code>, applies <code>tlag</code> to <code>x</code> with respect to <code>t</code>, and stores the lagged column in <code>df</code> under the name <code>newx</code>.</p>
<p dir="auto">As an example:</p>
<div class="highlight highlight-source-julia notranslate position-relative overflow-auto" dir="auto" data-snippet-clipboard-copy-content="julia&gt; using DataFrames;
julia&gt; df = DataFrame(
    t = [1;2;3;4; 1;3;4; 1;4; 1], 
    id = [1;1;1;1; 2;2;2; 3;3; 4],
    x = [1;2;3;4; 5;6;7; 8;9; 10]
);
julia&gt; panellead!(df, :id, :t, :x, :Fx)

10×4 DataFrame
 Row │ t      id     x      Fx      
     │ Int64  Int64  Int64  Int64?  
─────┼──────────────────────────────
   1 │     1      1      1  missing 
   2 │     2      1      2        1
   3 │     3      1      3        2
  ⋮  │   ⋮      ⋮      ⋮       ⋮
   8 │     1      3      8  missing 
   9 │     4      3      9  missing 
  10 │     1      4     10  missing 
                      4 rows omitted"><pre>julia<span class="pl-k">&gt;</span> <span class="pl-k">using</span> DataFrames;
…
