…
<div class="highlight highlight-source-julia notranslate position-relative overflow-auto" dir="auto" data-snippet-clipboard-copy-content="using Pkg
Pkg.add(&quot;RankCompV3&quot;)"><pre><span class="pl-k">using</span> Pkg
Pkg<span class="pl-k">.</span><span class="pl-c1">add</span>(<span class="pl-s"><span class="pl-pds">"</span>RankCompV3<span class="pl-pds">"</span></span>)</pre></div>
<h3 dir="auto"><a id="user-content-examples" class="anchor" aria-hidden="true" href="#examples"><svg class="octicon octicon-link" viewBox="0 0 16 16" version="1.1" width="16" height="16" aria-hidden="true"><path d="m7.775 3.275 1.25-1.25a3.5 3.5 0 1 1 4.95 4.95l-2.5 2.5a3.5 3.5 0 0 1-4.95 0 .751.751 0 0 1 .018-1.042.751.751 0 0 1 1.042-.018 1.998 1.998 0 0 0 2.83 0l2.5-2.5a2.002 2.002 0 0 0-2.83-2.83l-1.25 1.25a.751.751 0 0 1-1.042-.018.751.751 0 0 1-.018-1.042Zm-4.69 9.64a1.998 1.998 0 0 0 2.83 0l1.25-1.25a.751.751 0 0 1 1.042.018.751.751 0 0 1 .018 1.042l-1.25 1.25a3.5 3.5 0 1 1-4.95-4.95l2.5-2.5a3.5 3.5 0 0 1 4.95 0 .751.751 0 0 1-.018 1.042.751.751 0 0 1-1.042.018 1.998 1.998 0 0 0-2.83 0l-2.5 2.5a1.998 1.998 0 0 0 0 2.83Z"></path></svg></a>Examples</h3>
<h4 dir="auto"><a id="user-content-quick-start" class="anchor" aria-hidden="true" href="#quick-start"><svg class="octicon octicon-link" viewBox="0 0 16 16" version="1.1" width="16" height="16" aria-hidden="true"><path d="m7.775 3.275 1.25-1.25a3.5 3.5 0 1 1 4.95 4.95l-2.5 2.5a3.5 3.5 0 0 1-4.95 0 .751.751 0 0 1 .018-1.042.751.751 0 0 1 1.042-.018 1.998 1.998 0 0 0 2.83 0l2.5-2.5a2.002 2.002 0 0 0-2.83-2.83l-1.25 1.25a.751.751 0 0 1-1.042-.018.751.751 0 0 1-.018-1.042Zm-4.69 9.64a1.998 1.998 0 0 0 2.83 0l1.25-1.25a.751.751 0 0 1 1.042.018.751.751 0 0 1 .018 1.042l-1.25 1.25a3.5 3.5 0 1 1-4.95-4.95l2.5-2.5a3.5 3.5 0 0 1 4.95 0 .751.751 0 0 1-.018 1.042.751.751 0 0 1-1.042.018 1.998 1.998 0 0 0-2.83 0l-2.5 2.5a1.998 1.998 0 0 0 0 2.83Z"></path></svg></a>Quick Start</h4>
<p dir="auto">Run a test job with the input files distributed with the package.</p>
<div class="highlight highlight-source-julia notranslate position-relative overflow-auto" dir="auto" data-snippet-clipboard-copy-content="julia&gt; using RankCompV3
# Use the default values for the following other parameters. If you need to modify the parameters, add them directly.
julia&gt; result = reoa(use_testdata=&quot;yes&quot;)"><pre>julia<span class="pl-k">&gt;</span> <span class="pl-k">using</span> RankCompV3
<span class="pl-c"><span class="pl-c">#</span> Use the default values for the following other parameters. If you need to modify the parameters, add them directly.</span>
julia<span class="pl-k">&gt;</span> result <span class="pl-k">=</span> <span class="pl-c1">reoa</span>(use_testdata<span class="pl-k">=</span><span class="pl-s"><span class="pl-pds">"</span>yes<span class="pl-pds">"</span></span>)</pre></div>
<p dir="auto">The analysis results and a few plots will be generated and saved in the current work directory. They are also returned by the <code>reoa</code> function and can be captured by assign the returned values to a variable,  e.g., <code>result</code> in the above example.</p>
<p dir="auto">The first return value is a DataFrame, where rows are genes and columns are statistical values for each gene. All the genes passing the basic preprocessing step are retained.</p>
<div class="highlight highlight-source-julia notranslate position-relative overflow-auto" dir="auto" data-snippet-clipboard-copy-content="julia&gt; result
(19999×16 DataFrame
   Row │ Name     pval         padj        n11      n12      n13      n21      n22      n23      n31      n32      n33      Δ1           Δ2          se         z1
       │ String   Float64      Float64     Float64  Float64  Float64  Float64  Float64  Float64  Float64  Float64  Float64  Float64      Float64     Float64    Float64
───────┼────────────────────────────────────────────────────────────────────────────────────────────────────────────────────────────────────────────────────────────────────
     1 │ DE1      0.23566      0.716036     1532.0     75.0      0.0   1220.0  11010.0    602.0     16.0   2933.0   1674.0   1.91208      1.81954    0.0393608    48.5783
     2 │ DE2      0.280118     0.761567     2277.0    288.0      0.0    965.0  11514.0    372.0     20.0   2615.0   1011.0   1.74141      1.70287    0.0405313    42.9647
     3 │ DE3      0.0578546    0.359121     1576.0     37.0      0.0   1376.0   8716.0    293.0    113.0   5211.0   1740.0   3.05828      3.02011    0.0437133    69.9623
   ⋮   │    ⋮          ⋮           ⋮          ⋮        ⋮        ⋮        ⋮        ⋮        ⋮        ⋮        ⋮        ⋮          ⋮           ⋮           ⋮           ⋮
 19998 │ EE19999  0.344847     0.823375     1475.0    307.0      0.0   1756.0  15356.0    128.0      0.0     38.0      2.0   1.52307      1.41599    0.0525798    28.9668
 19999 │ EE20000  0.694484     0.980397     1571.0    315.0      0.0    979.0  15555.0    362.0      1.0    225.0     54.0   0.63329      0.577392   0.0481845    13.143
                                                                                                                                             19965 rows omitted, 19999×16"><pre>julia<span class="pl-k">&gt;</span> result
…
julia &lt;-julia_setup()"><pre>library(<span class="pl-smi">JuliaCall</span>)
<span class="pl-smi">julia</span> <span class="pl-k">&lt;-</span>julia_setup()</pre></div>
<h5 dir="auto"><a id="user-content-download-rankcompv3" class="anchor" aria-hidden="true" href="#download-rankcompv3"><svg class="octicon octicon-link" viewBox="0 0 16 16" version="1.1" width="16" height="16" aria-hidden="true"><path d="m7.775 3.275 1.25-1.25a3.5 3.5 0 1 1 4.95 4.95l-2.5 2.5a3.5 3.5 0 0 1-4.95 0 .751.751 0 0 1 .018-1.042.751.751 0 0 1 1.042-.018 1.998 1.998 0 0 0 2.83 0l2.5-2.5a2.002 2.002 0 0 0-2.83-2.83l-1.25 1.25a.751.751 0 0 1-1.042-.018.751.751 0 0 1-.018-1.042Zm-4.69 9.64a1.998 1.998 0 0 0 2.83 0l1.25-1.25a.751.751 0 0 1 1.042.018.751.751 0 0 1 .018 1.042l-1.25 1.25a3.5 3.5 0 1 1-4.95-4.95l2.5-2.5a3.5 3.5 0 0 1 4.95 0 .751.751 0 0 1-.018 1.042.751.751 0 0 1-1.042.018 1.998 1.998 0 0 0-2.83 0l-2.5 2.5a1.998 1.998 0 0 0 0 2.83Z"></path></svg></a>Download RankCompV3</h5>
<div class="highlight highlight-source-julia notranslate position-relative overflow-auto" dir="auto" data-snippet-clipboard-copy-content="julia_install_package_if_needed(&quot;RankCompV3&quot;)"><pre><span class="pl-c1">julia_install_package_if_needed</span>(<span class="pl-s"><span class="pl-pds">"</span>RankCompV3<span class="pl-pds">"</span></span>)</pre></div>
<h3 dir="auto"><a id="user-content-examples-1" class="anchor" aria-hidden="true" href="#examples-1"><svg class="octicon octicon-link" viewBox="0 0 16 16" version="1.1" width="16" height="16" aria-hidden="true"><path d="m7.775 3.275 1.25-1.25a3.5 3.5 0 1 1 4.95 4.95l-2.5 2.5a3.5 3.5 0 0 1-4.95 0 .751.751 0 0 1 .018-1.042.751.751 0 0 1 1.042-.018 1.998 1.998 0 0 0 2.83 0l2.5-2.5a2.002 2.002 0 0 0-2.83-2.83l-1.25 1.25a.751.751 0 0 1-1.042-.018.751.751 0 0 1-.018-1.042Zm-4.69 9.64a1.998 1.998 0 0 0 2.83 0l1.25-1.25a.751.751 0 0 1 1.042.018.751.751 0 0 1 .018 1.042l-1.25 1.25a3.5 3.5 0 1 1-4.95-4.95l2.5-2.5a3.5 3.5 0 0 1 4.95 0 .751.751 0 0 1-.018 1.042.751.751 0 0 1-1.042.018 1.998 1.998 0 0 0-2.83 0l-2.5 2.5a1.998 1.998 0 0 0 0 2.83Z"></path></svg></a>Examples</h3>
<h4 dir="auto"><a id="user-content-quick-start-1" class="anchor" aria-hidden="true" href="#quick-start-1"><svg class="octicon octicon-link" viewBox="0 0 16 16" version="1.1" width="16" height="16" aria-hidden="true"><path d="m7.775 3.275 1.25-1.25a3.5 3.5 0 1 1 4.95 4.95l-2.5 2.5a3.5 3.5 0 0 1-4.95 0 .751.751 0 0 1 .018-1.042.751.751 0 0 1 1.042-.018 1.998 1.998 0 0 0 2.83 0l2.5-2.5a2.002 2.002 0 0 0-2.83-2.83l-1.25 1.25a.751.751 0 0 1-1.042-.018.751.751 0 0 1-.018-1.042Zm-4.69 9.64a1.998 1.998 0 0 0 2.83 0l1.25-1.25a.751.751 0 0 1 1.042.018.751.751 0 0 1 .018 1.042l-1.25 1.25a3.5 3.5 0 1 1-4.95-4.95l2.5-2.5a3.5 3.5 0 0 1 4.95 0 .751.751 0 0 1-.018 1.042.751.751 0 0 1-1.042.018 1.998 1.998 0 0 0-2.83 0l-2.5 2.5a1.998 1.998 0 0 0 0 2.83Z"></path></svg></a>Quick Start</h4>
<p dir="auto">Run a test job with the input files distributed with the package.</p>
<div class="highlight highlight-source-r notranslate position-relative overflow-auto" dir="auto" data-snippet-clipboard-copy-content="julia_library(&quot;RankCompV3&quot;)
result &lt;- julia_do.call(&quot;reoa&quot;,list(use_testdata=&quot;yes&quot;),need_return=&quot;Julia&quot;,show_value=FALSE)"><pre>julia_library(<span class="pl-s"><span class="pl-pds">"</span>RankCompV3<span class="pl-pds">"</span></span>)
<span class="pl-smi">result</span> <span class="pl-k">&lt;-</span> julia_do.call(<span class="pl-s"><span class="pl-pds">"</span>reoa<span class="pl-pds">"</span></span>,<span class="pl-k">list</span>(<span class="pl-v">use_testdata</span><span class="pl-k">=</span><span class="pl-s"><span class="pl-pds">"</span>yes<span class="pl-pds">"</span></span>),<span class="pl-v">need_return</span><span class="pl-k">=</span><span class="pl-s"><span class="pl-pds">"</span>Julia<span class="pl-pds">"</span></span>,<span class="pl-v">show_value</span><span class="pl-k">=</span><span class="pl-c1">FALSE</span>)</pre></div>
<p dir="auto">The analysis results and a few plots will be generated and saved in the current work directory. They are also returned by the <code>reoa</code> function and can be captured by assign the returned values to a variable,  e.g., <code>result</code> in the above example.</p>
<p dir="auto">The first return value is a DataFrame, where rows are genes and columns are statistical values for each gene. All the genes passing the basic preprocessing step are retained.</p>
<div class="highlight highlight-source-r notranslate position-relative overflow-auto" dir="auto" data-snippet-clipboard-copy-content="&gt; result
Julia Object of type Tuple{DataFrames.DataFrame, DataFrames.DataFrame, DataFrames.DataFrame}.
(19999×16 DataFrame
   Row │ Name     pval        padj        n11      n12      n13      n21       ⋯
       │ String   Float64     Float64     Float64  Float64  Float64  Float64   ⋯
───────┼────────────────────────────────────────────────────────────────────────
     1 │ DE1      0.237557    0.719072     1531.0     75.0      0.0   1213.0   ⋯
     2 │ DE2      0.280253    0.762245     2276.0    285.0      0.0    978.0
     3 │ DE3      0.0578256   0.358368     1574.0     37.0      0.0   1375.0
     4 │ DE4      0.155619    0.595079     1539.0    139.0      0.0    760.0
     5 │ DE5      0.0432114   0.30634      1166.0     12.0      0.0   1582.0   ⋯
     6 │ DE6      0.0572817   0.356322     1583.0     70.0      0.0    909.0
     7 │ DE7      0.00925067  0.123914     2182.0     64.0      0.0   3608.0
     8 │ DE8      0.036411    0.278039     1927.0     69.0      0.0   2155.0
   ⋮   │    ⋮         ⋮           ⋮          ⋮        ⋮        ⋮        ⋮      ⋱
 19993 │ EE19994  0.0833578   0.438012     1719.0    353.0      0.0   1143.0   ⋯
 19994 │ EE19995  0.0457029   0.316136     1840.0    215.0      0.0   1323.0
 19995 │ EE19996  0.843871    0.999171     1103.0    276.0      0.0    440.0
 19996 │ EE19997  6.70797e-5  0.00465755   1248.0     25.0      0.0   2058.0
 19997 │ EE19998  0.909702    1.0          1112.0    136.0      0.0    931.0   ⋯
 19998 │ EE19999  0.348734    0.827127     1475.0    304.0      0.0   1752.0
 19999 │ EE20000  0.699539    0.981932     1576.0    313.0      0.0    970.0
                                                9 columns and 19984 rows omitted, 19999×6 DataFrame
…
