…
<li>Uses a custom geometry type to interface with <a href="https://gdal.org" rel="nofollow"><strong>GDAL</strong></a> and <a href="https://libgeos.org" rel="nofollow"><strong>GEOS</strong></a> for fast I/O and operations</li>
</ul>
<h1 dir="auto"><a id="user-content-about" class="anchor" aria-hidden="true" href="#about"><svg class="octicon octicon-link" viewBox="0 0 16 16" version="1.1" width="16" height="16" aria-hidden="true"><path d="m7.775 3.275 1.25-1.25a3.5 3.5 0 1 1 4.95 4.95l-2.5 2.5a3.5 3.5 0 0 1-4.95 0 .751.751 0 0 1 .018-1.042.751.751 0 0 1 1.042-.018 1.998 1.998 0 0 0 2.83 0l2.5-2.5a2.002 2.002 0 0 0-2.83-2.83l-1.25 1.25a.751.751 0 0 1-1.042-.018.751.751 0 0 1-.018-1.042Zm-4.69 9.64a1.998 1.998 0 0 0 2.83 0l1.25-1.25a.751.751 0 0 1 1.042.018.751.751 0 0 1 .018 1.042l-1.25 1.25a3.5 3.5 0 1 1-4.95-4.95l2.5-2.5a3.5 3.5 0 0 1 4.95 0 .751.751 0 0 1-.018 1.042.751.751 0 0 1-1.042.018 1.998 1.998 0 0 0-2.83 0l-2.5 2.5a1.998 1.998 0 0 0 0 2.83Z"></path></svg></a>About</h1>
<p dir="auto">The <code>SimpleFeatures</code> package aims to simplify working with geospatial data in Julia.</p>
<p dir="auto">This package currently offers some basic spatial operations, and more will be added in the future. <a href="https://acgold.github.io/SimpleFeatures.jl/dev/" rel="nofollow">See docs for more info and examples</a>.</p>
<p dir="auto">This package creates a <code>SimpleFeature</code> custom type that effectively functions as a DataFrame containing feature data but also contains projection and geometry type info.</p>
<p dir="auto">Geometries are represented as another custom type called <code>sfgeom</code>. The <code>sfgeom</code> type follows the <a href="https://juliageo.org/GeoInterface.jl/stable/" rel="nofollow">GeoInterface</a> standard, so it can be converted into other geometry types and GeoInterface functions will work.</p>
<p dir="auto"><strong>Example:</strong></p>
<div class="highlight highlight-source-julia notranslate position-relative overflow-auto" dir="auto" data-snippet-clipboard-copy-content="SimpleFeature
---------
geomtype:  wkbPolygon
crs:       PROJCRS[&quot;NAD83(2011) / UTM zone 17N&quot;,BASEGEOGCRS[&quot;NAD83(2011)&quot;,DATUM[&quot;NAD83 (National Spatial Refere...&quot;
---------
features:  
1000×2 DataFrame
  Row │ geom                          lyr.1 
      │ sfgeom                        Int32 
──────┼─────────────────────────────────────
    1 │ POLYGON ((853787 3905499,...      1
    2 │ POLYGON ((853800 3905499,...      1
    3 │ POLYGON ((853803 3905499,...      1
  ⋮   │              ⋮                  ⋮
  998 │ POLYGON ((904045 3905468,...      1
  999 │ POLYGON ((905355 3905468,...      1
 1000 │ POLYGON ((905561 3905469,...      1
                            994 rows omitted"><pre>SimpleFeature
…
