…
2×3 DataFrame
 Row │ names   mean     SE
     │ String  Float64  Float64
─────┼──────────────────────────
   1 │ api99   624.685  9.84669
   2 │ api00   656.585  9.5409"><pre>julia<span class="pl-k">&gt;</span> <span class="pl-c1">mean</span>([<span class="pl-c1">:api99</span>, <span class="pl-c1">:api00</span>], bootsrs)
<span class="pl-c1">2</span><span class="pl-k">×</span><span class="pl-c1">3</span> DataFrame
 Row │ names   mean     SE
     │ String  Float64  Float64
─────┼──────────────────────────
   <span class="pl-c1">1</span> │ api99   <span class="pl-c1">624.685</span>  <span class="pl-c1">9.84669</span>
   <span class="pl-c1">2</span> │ api00   <span class="pl-c1">656.585</span>  <span class="pl-c1">9.5409</span></pre></div>
<p dir="auto">... and we can also calculate domain estimates:</p>
<div class="highlight highlight-source-julia notranslate position-relative overflow-auto" dir="auto" data-snippet-clipboard-copy-content="julia&gt; total(:enroll, :cname, bootsrs)
38×3 DataFrame
 Row │ cname            total           SE
     │ String15         Float64         Any
─────┼────────────────────────────────────────────
   1 │ Kern                  1.95823e5  74731.2
   2 │ Los Angeles      867129.0        1.36622e5
   3 │ Orange                1.68786e5  63858.0
   4 │ San Luis Obispo    6720.49       6790.49
  ⋮  │        ⋮               ⋮             ⋮
  35 │ Calaveras         12976.4        13241.6
  36 │ Napa              39239.0        30181.9
  37 │ Lake               6410.79       6986.29
  38 │ Merced            15392.1        15202.2
                                   30 rows omitted"><pre>julia<span class="pl-k">&gt;</span> <span class="pl-c1">total</span>(<span class="pl-c1">:enroll</span>, <span class="pl-c1">:cname</span>, bootsrs)
…
