…
    <img src="https://camo.githubusercontent.com/30059f479e1860da0fa5f5ba2ef1a69e4207f975022d1cc485c70fa2a8bd6f72/68747470733a2f2f7a656e6f646f2e6f72672f62616467652f444f492f31302e353238312f7a656e6f646f2e323637373636362e737667" alt="DOI" data-canonical-src="https://zenodo.org/badge/DOI/10.5281/zenodo.2677666.svg" style="max-width: 100%;">
  </a>
  <a href="https://github.com/briochemc/WorldOceanAtlasTools.jl/blob/master/LICENSE">
    <img alt="License: MIT" src="https://camo.githubusercontent.com/78f47a09877ba9d28da1887a93e5c3bc2efb309c1e910eb21135becd2998238a/68747470733a2f2f696d672e736869656c64732e696f2f62616467652f4c6963656e73652d4d49542d79656c6c6f772e737667" data-canonical-src="https://img.shields.io/badge/License-MIT-yellow.svg" style="max-width: 100%;">
  </a>
</p>
<h3 dir="auto"><a id="user-content-simple-usage" class="anchor" aria-hidden="true" href="#simple-usage"><svg class="octicon octicon-link" viewBox="0 0 16 16" version="1.1" width="16" height="16" aria-hidden="true"><path d="m7.775 3.275 1.25-1.25a3.5 3.5 0 1 1 4.95 4.95l-2.5 2.5a3.5 3.5 0 0 1-4.95 0 .751.751 0 0 1 .018-1.042.751.751 0 0 1 1.042-.018 1.998 1.998 0 0 0 2.83 0l2.5-2.5a2.002 2.002 0 0 0-2.83-2.83l-1.25 1.25a.751.751 0 0 1-1.042-.018.751.751 0 0 1-.018-1.042Zm-4.69 9.64a1.998 1.998 0 0 0 2.83 0l1.25-1.25a.751.751 0 0 1 1.042.018.751.751 0 0 1 .018 1.042l-1.25 1.25a3.5 3.5 0 1 1-4.95-4.95l2.5-2.5a3.5 3.5 0 0 1 4.95 0 .751.751 0 0 1-.018 1.042.751.751 0 0 1-1.042.018 1.998 1.998 0 0 0-2.83 0l-2.5 2.5a1.998 1.998 0 0 0 0 2.83Z"></path></svg></a>Simple usage</h3>
<p dir="auto">Just add WorldOceanAtlasTools like any other Julia package, and then you can grab the data with, e.g.,</p>
<div class="highlight highlight-source-julia notranslate position-relative overflow-auto" dir="auto" data-snippet-clipboard-copy-content="julia&gt; WorldOceanAtlasTools.observations(&quot;PO₄&quot;)
Registering World Ocean Atlas data with DataDeps
┌ Warning: You are about to use World Ocean Atlas data.
│ Please cite the following corresponding reference(s):
│ Garcia, H. E., K. Weathers, C. R. Paver, I. Smolyar, T. P. Boyer, R. A. Locarnini, M. M. Zweng, A. V. Mishonov, O. K. Baranova, D. Seidov, and J. R. Reagan, 2018. World Ocean Atlas 2018, Volume 4: Dissolved Inorganic Nutrients (phosphate, nitrate and nitrate+nitrite, silicate). A. Mishonov Technical Ed.; in preparation.)
└ @ WorldOceanAtlasTools ~/.julia/dev/WorldOceanAtlasTools/src/functions.jl:218
1312523×4 DataFrame
     Row │ lat      lon      depth      PO₄
         │ Float32  Float32  Quantity…  Quantity…
─────────┼────────────────────────────────────────────────
       1 │   -77.5   -178.5      0.0 m  1.35075 μmol kg⁻¹
       2 │   -77.5   -177.5      0.0 m  1.28211 μmol kg⁻¹
       3 │   -77.5   -176.5      0.0 m  1.37447 μmol kg⁻¹
    ⋮    │    ⋮        ⋮         ⋮              ⋮
 1312521 │    52.5   -165.5   5500.0 m  2.4566 μmol kg⁻¹
 1312522 │    52.5   -163.5   5500.0 m  2.42341 μmol kg⁻¹
 1312523 │    53.5   -158.5   5500.0 m  2.45224 μmol kg⁻¹
                                      1312517 rows omitted"><pre>julia<span class="pl-k">&gt;</span> WorldOceanAtlasTools<span class="pl-k">.</span><span class="pl-c1">observations</span>(<span class="pl-s"><span class="pl-pds">"</span>PO₄<span class="pl-pds">"</span></span>)
…
